Modelo de Aprendizaje Automático para la Probabilidad de Impago
…
Collect Metrics

# A tibble: 208 × 14
   trees learn_rate tree_depth min_n loss_reduction sample_size  mtry .metric 
   <int>      <dbl>      <int> <int>          <dbl>       <dbl> <int> <chr>   
 1   357   1.33e-10         13    31  0.000723            0.808     8 accuracy
 2   357   1.33e-10         13    31  0.000723            0.808     8 roc_auc 
 3   152   1.39e-10         10     5  0.202               0.474     2 accuracy
 4   152   1.39e-10         10     5  0.202               0.474     2 roc_auc 
 5   213   1.43e-10          6    21  0.0357              0.284     6 accuracy
 6   213   1.43e-10          6    21  0.0357              0.284     6 roc_auc 
 7   454   3.76e-10          7    27  0.00000000917       0.108     8 accuracy
 8   454   3.76e-10          7    27  0.00000000917       0.108     8 roc_auc 
 9   144   6.15e-10         15    21  0.00489             0.666     6 accuracy
10   144   6.15e-10         15    21  0.00489             0.666     6 roc_auc 
# ℹ 198 more rows
# ℹ 6 more variables: .estimator <chr>, mean <dbl>, n <int>, std_err <dbl>,
#   .config <chr>, .iter <int>

AUC

# A tibble: 44 × 14
   trees learn_rate tree_depth min_n loss_reduction sample_size  mtry .metric
   <int>      <dbl>      <int> <int>          <dbl>       <dbl> <int> <chr>  
 1   357   1.33e-10         13    31        7.23e-4       0.808     8 roc_auc
 2   152   1.39e-10         10     5        2.02e-1       0.474     2 roc_auc
 3   213   1.43e-10          6    21        3.57e-2       0.284     6 roc_auc
 4   454   3.76e-10          7    27        9.17e-9       0.108     8 roc_auc
 5   144   6.15e-10         15    21        4.89e-3       0.666     6 roc_auc
 6   139   1.69e- 9          7    21        2.68e+1       0.748     3 roc_auc
 7   167   2.19e- 8         15    16        6.74e-3       0.113     8 roc_auc
 8   406   5.52e- 4         12    16        9.39e-5       0.303     1 roc_auc
 9   195   6.40e- 4          9    34        1.17e-9       0.265     5 roc_auc
10   392   3.97e- 3         11    21        6.01e-1       0.866     9 roc_auc
# ℹ 34 more rows
# ℹ 6 more variables: .estimator <chr>, mean <dbl>, n <int>, std_err <dbl>,
#   .config <chr>, .iter <int>
…
